Adding user sd302 to group authjobs
*** STARTED: Thu Feb  6 17:31:22 EST 2014 on jinx5 ***
/nethome/sd302/HPC/assgn1
jinx5
jinx6



depth input = 1 raank=0
depth input = 1 raank=1
line 211
line 37
line 38 sol=0 diff= 1
 43
diff= 1 sol=0
 line 37
line 38 sol=1 diff= 0
 line 37
line 38 sol=0 diff= 0
 line 37
line 38 sol=0 diff= 0
 43
diff= 0 sol=0
 line 51
line 54
line 37
line 38 sol=1 diff= 0
 43
diff= 0 sol=1
 line 37
line 38 sol=2 diff= 0
 43
diff= 0 sol=2
 line 37
line 38 sol=3 diff= 0
 43
diff= 0 sol=3
 line 37
line 38 sol=4 diff= 0
 43
diff= 0 sol=4
 line 37
line 38 sol=5 diff= 0
 43
diff= 0 sol=5
 line 37
line 38 sol=6 diff= 1
 43
diff= 1 sol=6
 line 37
line 38 sol=7 diff= 0
 line 37
line 38 sol=0 diff= 0
 line 37
line 38 sol=0 diff= 0
 43
diff= 0 sol=0
 line 51
line 54
line 37
line 38 sol=1 diff= 0
 43
diff= 0 sol=1
 line 37
line 38 sol=2 diff= 0
 43
diff= 0 sol=2
 line 37
line 38 sol=3 diff= 0
 43
diff= 0 sol=3
 line 37
line 38 sol=4 diff= 0
 43
diff= 0 sol=4
 line 37
line 38 sol=5 diff= 0
 43
diff= 0 sol=5
 line 37
line 38 sol=6 diff= 1
 43
diff= 1 sol=6
 line 37
line 38 sol=7 diff= 0
 line 37
line 38 sol=0 diff= 0
 line 37
line 38 sol=0 diff= 0
 43
diff= 0 sol=0
 line 51
line 54
line 37
line 38 sol=1 diff= 0
 43
diff= 0 sol=1
 line 37
line 38 sol=2 diff= 0
 43
diff= 0 sol=2
 line 37
line 38 sol=3 diff= 0
 43
diff= 0 sol=3
 line 37
line 38 sol=4 diff= 0
 43
diff= 0 sol=4
 line 37
line 38 sol=5 diff= 0
 43
diff= 0 sol=5
 line 37
line 38 sol=6 diff= 1
 43
diff= 1 sol=6
 line 37
line 38 sol=7 diff= 0
 line 37
line 38 sol=0 diff= 0
 line 37
line 38 sol=0 diff= 0
 43
diff= 0 sol=0
 line 51
line 54
line 37
line 38 sol=1 diff= 0
 43
diff= 0 sol=1
 line 37
line 38 sol=2 diff= 0
 43
diff= 0 sol=2
 line 37
line 38 sol=3 diff= 0
 43
diff= 0 sol=3
 line 37
line 38 sol=4 diff= 0
 43
diff= 0 sol=4
 line 37
line 38 sol=5 diff= 0
 43
diff= 0 sol=5
 line 37
line 38 sol=6 diff= 1
 43
diff= 1 sol=6
 line 37
line 38 sol=7 diff= 0
 line 37
line 38 sol=0 diff= 0
 line 37
line 38 sol=0 diff= 0
 43
diff= 0 sol=0
 line 51
line 54
line 37
line 38 sol=1 diff= 0
 43
diff= 0 sol=1
 line 37
line 38 sol=2 diff= 0
 43
diff= 0 sol=2
 line 37
line 38 sol=3 diff= 0
 43
diff= 0 sol=3
 line 37
line 38 sol=4 diff= 0
 43
diff= 0 sol=4
 line 37
line 38 sol=5 diff= 0
 43
diff= 0 sol=5
 line 37
line 38 sol=6 diff= 1
 43
diff= 1 sol=6
 line 37
line 38 sol=7 diff= 0
 line 37
line 38 sol=0 diff= 0
 line 37
line 38 sol=0 diff= 0
 43
diff= 0 sol=0
 line 51
line 54
line 37
line 38 sol=1 diff= 0
 43
diff= 0 sol=1
 line 37
line 38 sol=2 diff= 0
 43
diff= 0 sol=2
 line 37
line 38 sol=3 diff= 0
 43
diff= 0 sol=3
 line 37
line 38 sol=4 diff= 0
 43
diff= 0 sol=4
 line 37
line 38 sol=5 diff= 0
 43
diff= 0 sol=5
 line 37
line 38 sol=6 diff= 1
 43
diff= 1 sol=6
 line 37
line 38 sol=7 diff= 0
 line 37
line 38 sol=0 diff= 0
 line 37
line 38 sol=0 diff= 0
 43
diff= 0 sol=0
 line 51
line 54
line 37
line 38 sol=1 diff= 0
 43
diff= 0 sol=1
 line 37
line 38 sol=2 diff= 0
 43
diff= 0 sol=2
 line 37
line 38 sol=3 diff= 0
 43
diff= 0 sol=3
 line 37
line 38 sol=4 diff= 0
 43
diff= 0 sol=4
 line 37
line 38 sol=5 diff= 0
 43
diff= 0 sol=5
 line 37
line 38 sol=6 diff= 1
 43
diff= 1 sol=6
 line 37
line 38 sol=7 diff= 0
 line 37
line 38 sol=0 diff= 0
 line 37
line 38 sol=0 diff= 0
 43
diff= 0 sol=0
 line 51
line 54
line 37
line 38 sol=1 diff= 0
 43
diff= 0 sol=1
 line 37
line 38 sol=2 diff= 0
 43
diff= 0 sol=2
 line 37
line 38 sol=3 diff= 0
 43
diff= 0 sol=3
 line 37
line 38 sol=4 diff= 0
 43
diff= 0 sol=4
 line 37
line 38 sol=5 diff= 0
 43
diff= 0 sol=5
 line 179
line 216
line 119
line 119
line 119
line 119
line 119
line 119
line 119
line 119
line 119
line 119
line 119
line 119
line 119
line 119
line 119
line 119
line 119
line 119
line 119
line 119
line 119
line 119
line 119
line 119
line 119
line 119
line 119
line 119
line 119
line 119
line 119
line 119
line 119
line 119
line 119
line 119
line 119
line 119
line 119
line 119
line 119
line 119
line 119
line 119
line 119
line 119
line 119
line 119
line 119
line 119
line 119
line 119
line 119
line 119
line 119
line 119
line 119
line 119
line 119
line 119
line 119
line 119
line 119
line 119
line 119
line 119
line 119
line 119
line 119
line 119
line 119
line 119
line 119
line 119
line 119
line 119
line 119
line 119
line 119
line 119
line 119
line 119
line 119
line 119
line 119
line 119
line 119
line 119
line 119
line 119
line 119
line 119
line 119
line 119
line 119
line 119
line 119
line 119
line 119
line 119
line 119
line 119
line 119
line 119
line 119
line 119
line 119
line 119
line 119
line 119
line 184
line 119
line 119
line 184
line 135
line 119
line 119
line 119
line 119
line 119
line 119
line 119
line 119
line 119
line 119
line 119
line 119
line 119
line 119
line 119
line 119
line 119
line 119
line 119
line 119
line 119
line 119
line 119
line 119
line 119
line 119
line 119
line 119
line 119
line 119
line 119
line 119
line 119
line 119
line 135
line 184
line 119
line 119
line 119
line 119
line 119
line 119
line 119
line 119
line 119
line 119
line 119
line 119
line 119
line 119
line 119
line 119
line 119
line 119
line 119
line 184
line 119
line 119
line 119
line 119
line 119
line 119
line 119
line 135
line 119
line 119
line 119
line 119
line 119
line 119
line 119
line 119
line 119
line 119
line 119
line 119
line 119
line 119
line 119
line 119
line 119
line 119
line 135
line 119
line 119
line 119
line 119
line 119
line 119
line 119
line 119
line 119
line 119
line 119
line 119
line 119
line 119
line 119
line 119
line 119
line 119
line 119
line 119
line 119
line 119
line 119
line 119
line 119
line 119
line 119
line 119
line 119
line 119
line 119
line 119
line 119
line 119
line 119
line 119
Number of solutions = 4
Removing user sd302 from group authjobs
