Adding user sd302 to group authjobs
*** STARTED: Wed Feb  5 02:42:44 EST 2014 on jinx4 ***
/nethome/sd302/HPC/assgn1
jinx4
jinx5



Number of solutions = 0
Number of solutions = 18
*** COMPLETED: Wed Feb  5 02:42:49 EST 2014 on jinx4 ***
Removing user sd302 from group authjobs
